{
        "请求头": "User-Agent$MOBILE_UA",
        "编码": "UTF-8",
        "主页url": "https://www.ffssaa7.site/",
        "二次截取": "module-items\"&&id=\"page[替换:module-footer>>module-item]",
        "数组": "module-item-pic&&module-item\"",
        "标题": "title=\"&&\"",
        "图片": "data-src=\"&&\"",
        "副标题": "class=\"module-item-text\">&&</div>",
        "链接": "href=\"&&\"",
        "播放数组": "class=\"scroll-content\"&&</div>",
        "播放列表": "<a&&a>",
        "播放链接": "href=\"&&\"",
        "播放标题": "<span>&&</span>",
        "线路数组": "module-tab-item tab-item&&</div>",
        "线路标题": "<span>&&</span>",
        "跳转播放链接": "var player_*\"url\":\"&&\"",
        "分类url": "https://www.ffssaa7.site/index.php/vod/show/by/score/id/{cateId}/letter/{letter}/page/{catePg}/year/{year}.html",
        "分类": "鲨鱼资源$1#115$2#乐播$3#辣椒资源$4",
        "类型": "精品推荐$20#国产情色$21#日本无码$22#AV明星$23#中文字幕$24#网红主播$25#成人动漫$26#欧美情色$27#国模私拍$28#长腿丝袜$29#邻家人妻$30#韩国伦理$31#香港伦理$37||抖音视频$39#韩国主播$40#网红头条$41#网爆黑料$42#欧美无码$43#女优明星$44#SM调教$45#AV解说$46#无码专区$56#麻豆传媒$50#制服诱惑$51#三级伦理$52#AI换脸$53#中文字幕$54#卡通动漫$47#欧美系列$48#美女主播$49#强奸乱伦$57#国产自拍$55#熟女人妻$38||亚洲情色$58#国产主播$59#国产自拍$60#无码专区$61#欧美性爱$62#熟女人妻$63#强奸乱伦$64#巨乳美乳$65#中文字幕$66#制服诱惑$67#女同性恋$68#卡通动画$69#视频伦理$70#少女萝莉$71#重口色情$72#人兽性交$73||国产自拍$74#欧美极品$75#日韩无码$76#AV明星$77#中文字幕$78#动漫精品$79#极骚萝莉$80#人妖视频$81#重咸口味$82#强奸乱伦$83#三级自慰$84#HEYZO$85#独家DMM$86#HEY诱惑$87#童颜巨乳$88#高潮喷吹$89#激情口交$90#绝美少女$91#首次亮相$92#独家擂台格斗$95"
      }