{
                "请求头": "User-Agent$MOBILE_UA",
                "编码": "UTF-8",
                "主页url": "https://www.jscrzn.com/czclass/maoxianpian-----------.html",
                "首页": "120",
                "起始页": "1",
                "分类url": "https://www.jscrzn.com/czclass/maoxianpian-{cateId}-------{catePg}---.html",
                "分类": "大陆&香港&台湾&韩国&日本&美国&印度&英国&法国&泰国&新加坡&马来西亚&加拿大&西班牙&俄罗斯",
                "分类值": "*",
                "数组": "target=\"_blank&&</a>",
                "标题": "title=\"&&\"",
                "图片代理": "1",
                "图片": "data-original=\"&&\"",
                "副标题": "✨+public-prt hide\">&&</span>+hide ft2\">&&</span>",
                "链接": "href=\"&&\"",
                "影片年代": "更新 :&&</div>",
                "状态": "提醒 :&&</div>",
                "导演": "✨+导演 :&&</div>",
                "主演": "✨+主演 :&&</div>",
                "跳转数组": "vod-detail-bnt flex\">&&</div>",
                "跳转链接": "href=\"&&\"",
                "线路数组": "info&&\">",
                "线路标题": "✨+云播",
                "播放数组": "anthology-list-play size&&</ul>",
                "播放列表": "<li&&</li>[不包含:💞美女直播]",
                "播放标题": "✨+<span>&&<",
                "播放链接": "href=\"&&\"",
                "跳转播放链接": "urlDecode(var player_*\"url\":\"&&\")",
                "搜索模式": "1",
                "搜索url": "http://www.jscrzn.com/search/{wd}----------{pg}---.html",
                "简介": "✨+text cor4\">&&</p>"
            }