{
                "请求头": "User-Agent$MOBILE_UA",
                "编码": "UTF-8",
                "主页url": "http://www.ymhgj.cn/",
                "首页": "120",
                "起始页": "1",
                "数组": "lazyload\"&&</div>",
                "标题": "title=\"&&\"",
                "图片": "data-original=\"&&\"",
                "副标题": "right\">&&<",
                "链接": "href=\"&&\"",
                "简介": "简介：&&</p >",
                "线路数组": "playlist&&</li>",
                "线路标题": ">&&<",
                "播放二次截取": "",
                "播放数组": "playlist clearfix column8 overflow\">&&</ul>",
                "播放列表": "<a&&/a>",
                "播放标题": ">&&<",
                "播放链接": "href=\"&&\"",
                "跳转播放链接": "var player_*\"url\":\"&&\"",
                "分类url": "http://mfgsjigv.ymhgj.cn/show/{cateId}-{area}-{by}-{class}-{lang}-{letter}---{catePg}---{year}.html",
                "分类": "电影$dianying#电视剧$dianshiju#综艺$zongyi#动漫$dongman#午夜剧场$lunlipian#爽文短剧$wenduan#电影解说$jieshuo",
                "类型": "动作片$dongzuopian#喜剧片$xijupian#爱情片$aiqingpian#科幻片$kehuanpian#恐怖片$kongbupian#剧情片$juqingpian#战争片$zhanzhengpian#犯罪片$fanzuipian || 国产剧$guochanju#香港剧$gangju#韩国剧$hanju#欧美剧$oumeiju#台湾剧$taiwanju#泰剧$taiju#日本剧$riju#其它剧$haiwaiju || 大陆综艺$daluzongyi#日韩综艺$rihanzongyi#港台综艺$gangtaizongyi#欧美综艺$oumeizongyi || 国产动漫$guochandongman#日本动漫$ribendongman#欧美动漫$oumeidongman#海外动漫$haiwaidongman || 空 || 空 || 空"
            }