🍀20250213更新🍀,#genre#
更新說明,https://live.metshop.top/huya/13303478
刪除異常線路,https://live.metshop.top/huya/15152155
YT直播請升級,https://live.metshop.top/douyu/9986305
且看且珍惜,https://live.metshop.top/huya/593667
可切換其他線路,https://live.metshop.top/huya/16739452

🇹🇼Youtube新聞,#genre#
TVBS NEWS,https://www.youtube.com/live/m_dhMSvUCIc?si=78nn4zg-p7myFADX
華視新聞 CH52,https://www.youtube.com/live/wM0g8EoUZ_E?si=3T_8RY87ofxF1e9l
三立LIVE新聞,https://www.youtube.com/live/oZdzzvxTfUY?si=r5eFogY2Wtp5fow6
鏡新聞,https://www.youtube.com/live/5n0y6b0Q25o?si=g5BhIIh3GkKHE6WN
台視新聞 TTV NEWS,https://www.youtube.com/live/xL0ch83RAK8?si=oJboCZkV587NAROX
中視新聞 HD直播頻道｜Taiwan CTV news HD Live,https://www.youtube.com/live/TCnaIE_SAtM?si=TL218pRsQaf-wPqs
中天電視,https://www.youtube.com/live/oIgbl7t0S_w?si=2cFOk3EDavpOQm5t
CTI+ | 中天2台,https://www.youtube.com/live/WPfPjbOLNfE?si=zXSnir0gxW9_7Gg2
公視 網路直播頻道,https://www.youtube.com/live/C6gYqSHLRw4?si=RH1rK6z2Ty1W6Cx5
公視新聞網,https://www.youtube.com/live/quwqlazU-c8?si=QVGvSdOOw6JUysBK
公視台語台,https://www.youtube.com/live/6KlRR_DGhmI?si=FxUe97Uzd8xFnx_c
57東森財經新聞,https://www.youtube.com/live/WHEPzbFA3hw?si=nJLlM3OF7nuq1a0d
TTV LIVE 台視直播,https://www.youtube.com/live/uDqQo8a7Xmk?si=ve9gPXOQ3fJCkBVh
寰宇新聞 頻道,https://www.youtube.com/live/6IquAgfvYmc?si=dx_A4oh2RZ8cbYef
民視新聞網 Formosa TV News network,https://www.youtube.com/live/ylYJSBUgaMA?si=imrpr3gkiGHnhiwZ
東森新聞,https://www.youtube.com/live/V1p33hqPrUk?si=WEahQ_iSd2GXJK_K
年代新聞,http://211.23.114.106:8517/http/60.251.39.91:8081/hls/67/809/ch27.m3u8
鳳凰衛視PhoenixTV,https://www.youtube.com/live/HFib76ySpbU?si=gNvltQSNXOHVRVyG

🇹🇼台灣電視¹🆙,#genre#
民视,rtmp://f13h.mine.nu/sat/tv051
台视,rtmp://f13h.mine.nu/sat/tv071
中视,rtmp://f13h.mine.nu/sat/tv091
华视,rtmp://f13h.mine.nu/sat/tv111
非凡新闻,rtmp://f13h.mine.nu/sat/tv581
东森超视,rtmp://f13h.mine.nu/sat/tv331
纬来体育,rtmp://f13h.mine.nu/sat/tv721
纬来育乐,rtmp://f13h.mine.nu/sat/tv701
纬来日本,rtmp://f13h.mine.nu/sat/tv771
MoMo综合,rtmp://f13h.mine.nu/sat/tv761
ELTA体育3,rtmp://9hv9.mine.nu/sat/md011
ELTA体育4,rtmp://9hv9.mine.nu/sat/md021
DAZN体育1,rtmp://f13h.mine.nu/sat/tv731
DAZN体育2,rtmp://f13h.mine.nu/sat/tv741
DW,http://61.221.215.25:8800/hls/1/index.m3u8
大爱一台,https://pulltv1.wanfudaluye.com/live/tv1.m3u8
大爱二台,https://pulltv2.wanfudaluye.com/live/tv2.m3u8
环球电视台,http://zb.xzxwhcb.com:9999/hls/world.m3u8
TVBS NEWS,http://61.221.215.25:8800/hls/9/index.m3u8
八大戏剧,http://61.221.215.25:8800/hls/39/index.m3u8
八大第一,http://61.221.215.25:8800/hls/55/index.m3u8
八大综合,http://61.221.215.25:8800/hls/56/index.m3u8
三立戏剧,http://61.221.215.25:8800/hls/41/index.m3u8
AMC电影台,http://61.221.215.25:8800/hls/43/index.m3u8
纬来精彩,http://61.221.215.25:8800/hls/48/index.m3u8
探索亚洲,http://61.221.215.25:8800/hls/50/index.m3u8
NHK WORLD,http://61.221.215.25:8800/hls/51/index.m3u8
动物星球,http://61.221.215.25:8800/hls/57/index.m3u8
中华小当家,http://61.221.215.25:8800/hls/40/index.m3u8
凤凰资讯,http://61.221.215.25:8800/hls/47/index.m3u8
緯來體育,http://125.227.210.55:8155/VideoInput/play.ts
三立台灣,http://125.227.210.55:8160/VideoInput/play.ts
Bloomberg,http://125.227.210.55:8161/VideoInput/play.ts
CN卡通,http://125.227.210.55:8167/VideoInput/play.ts
TVBS新聞,http://125.227.210.55:8186/VideoInput/play.ts
食尚玩家,http://125.227.210.55:8187/VideoInput/play.ts
三立新聞,http://125.227.210.55:8162/VideoInput/play.ts
BBC new,http://125.227.210.55:8165/VideoInput/play.ts
CNN new,http://125.227.210.55:8166/VideoInput/play.ts

🇹🇼台灣電視²🆙,#genre#
ROCK Entertainment,http://4gtv.mumi.rip:9877/180/4gtv-live138/index.m3u8
民視,http://4gtv.mumi.rip:9877/3/4gtv-4gtv002/index.m3u8
TVBS歡樂台,http://4gtv.mumi.rip:9877/184/4gtv-4gtv068/index.m3u8
MOMO親子台,http://4gtv.mumi.rip:9877/231/4gtv-live107/index.m3u8
TVBS台劇台,http://4gtv.mumi.rip:9877/285/4gtv-live088/index.m3u8
TVBS綜藝台,http://4gtv.mumi.rip:9877/284/4gtv-live087/index.m3u8
TVBS精采台,http://4gtv.mumi.rip:9877/227/4gtv-4gtv067/index.m3u8
Mezzo Live,http://4gtv.mumi.rip:9877/79/4gtv-4gtv083/index.m3u8
時尚運動X,http://4gtv.mumi.rip:9877/69/4gtv-4gtv014/index.m3u8
好消息2台,http://4gtv.mumi.rip:9877/8/litv-ftv17/index.m3u8
國會頻道1,http://4gtv.mumi.rip:9877/170/4gtv-4gtv084/index.m3u8
國會頻道2,http://4gtv.mumi.rip:9877/171/4gtv-4gtv085/index.m3u8
靖天映畫,http://4gtv.mumi.rip:9877/42/4gtv-4gtv055/index.m3u8
Bloomberg TV,http://4gtv.mumi.rip:9877/283/4gtv-live059/index.m3u8
i-Fun動漫台,http://4gtv.mumi.rip:9877/60/litv-ftv15/index.m3u8
大愛一台,http://4gtv.mumi.rip:9877/209/4gtv-live007/index.m3u8
Global Trekker,http://4gtv.mumi.rip:9877/252/4gtv-live112/index.m3u8
Smart知識台,http://4gtv.mumi.rip:9877/297/litv-longturn19/index.m3u8
華視新聞,http://4gtv.mumi.rip:9877/34/4gtv-4gtv052/index.m3u8
中視新聞,http://4gtv.mumi.rip:9877/33/4gtv-4gtv074/index.m3u8
公視,http://4gtv.mumi.rip:9877/7/4gtv-4gtv042/index.m3u8
amc電影台,http://4gtv.mumi.rip:9877/39/4gtv-4gtv017/index.m3u8
大愛二台,http://4gtv.mumi.rip:9877/230/4gtv-live106/index.m3u8
人間衛視,http://4gtv.mumi.rip:9877/210/4gtv-live008/index.m3u8
DW德國之聲,http://4gtv.mumi.rip:9877/226/4gtv-live071/index.m3u8
靖洋戲劇台,http://4gtv.mumi.rip:9877/118/4gtv-4gtv045/index.m3u8
三立綜合台,http://4gtv.mumi.rip:9877/169/4gtv-live207/index.m3u8
博斯無限台,http://4gtv.mumi.rip:9877/51/litv-longturn10/index.m3u8
東森新聞台,http://4gtv.mumi.rip:9877/292/4gtv-4gtv152/index.m3u8
中天新聞台,http://4gtv.mumi.rip:9877/30/4gtv-4gtv009/index.m3u8
民視台灣台,http://4gtv.mumi.rip:9877/2/4gtv-4gtv001/index.m3u8
八大綜藝台,http://4gtv.mumi.rip:9877/114/4gtv-4gtv039/index.m3u8
靖天日本台,http://4gtv.mumi.rip:9877/22/4gtv-4gtv047/index.m3u8
中視經典,http://4gtv.mumi.rip:9877/124/4gtv-4gtv080/index.m3u8
靖天綜合台,http://4gtv.mumi.rip:9877/21/4gtv-4gtv046/index.m3u8
VOA美國之音,http://4gtv.mumi.rip:9877/86/litv-ftv03/index.m3u8
中視菁采台,http://4gtv.mumi.rip:9877/123/4gtv-4gtv064/index.m3u8
靖天育樂台,http://4gtv.mumi.rip:9877/83/4gtv-4gtv062/index.m3u8
八大精彩台,http://4gtv.mumi.rip:9877/172/4gtv-4gtv034/index.m3u8
龍華電影,http://4gtv.mumi.rip:9877/121/litv-longturn03/index.m3u8
龍華動畫,http://4gtv.mumi.rip:9877/295/litv-longturn01/index.m3u8
CinemaWorld,http://4gtv.mumi.rip:9877/225/4gtv-live069/index.m3u8
靖天電影台,http://4gtv.mumi.rip:9877/82/4gtv-4gtv061/index.m3u8
達芬奇頻道,http://4gtv.mumi.rip:9877/11/4gtv-4gtv018/index.m3u8
靖天卡通台,http://4gtv.mumi.rip:9877/15/4gtv-4gtv044/index.m3u8
經典卡通台,http://4gtv.mumi.rip:9877/202/4gtv-live022/index.m3u8
民視第一台,http://4gtv.mumi.rip:9877/1/4gtv-4gtv003/index.m3u8
客家電視台,http://4gtv.mumi.rip:9877/107/4gtv-4gtv043/index.m3u8
民視新聞台,http://4gtv.mumi.rip:9877/31/litv-ftv13/index.m3u8
寰宇新聞,http://4gtv.mumi.rip:9877/36/litv-longturn14/index.m3u8
民視綜藝台,http://4gtv.mumi.rip:9877/16/4gtv-4gtv004/index.m3u8
靖天資訊台,http://4gtv.mumi.rip:9877/88/4gtv-4gtv065/index.m3u8
TRACE Urban,http://4gtv.mumi.rip:9877/78/4gtv-4gtv082/index.m3u8
博斯高球台,http://4gtv.mumi.rip:9877/48/litv-longturn05/index.m3u8
博斯網球台,http://4gtv.mumi.rip:9877/52/litv-longturn09/index.m3u8
博斯魅力網,http://4gtv.mumi.rip:9877/300/litv-longturn04/index.m3u8
智林體育台,http://4gtv.mumi.rip:9877/58/4gtv-4gtv101/index.m3u8
GINX Esports TV,http://4gtv.mumi.rip:9877/179/4gtv-4gtv053/index.m3u8
Pet Club TV,http://4gtv.mumi.rip:9877/182/4gtv-live110/index.m3u8
民視旅遊台,http://4gtv.mumi.rip:9877/61/litv-ftv07/index.m3u8
滾動力rollor,http://4gtv.mumi.rip:9877/249/4gtv-live012/index.m3u8
Love Nature,http://4gtv.mumi.rip:9877/139/4gtv-live208/index.m3u8
LUXE TV Channel,http://4gtv.mumi.rip:9877/175/4gtv-live121/index.m3u8
龍華偶像,http://4gtv.mumi.rip:9877/296/litv-longturn12/index.m3u8
民視影劇台,http://4gtv.mumi.rip:9877/24/litv-ftv09/index.m3u8
龍華戲劇,http://4gtv.mumi.rip:9877/23/litv-longturn18/index.m3u8
龍華日韓台,http://4gtv.mumi.rip:9877/28/litv-longturn11/index.m3u8
霹靂布袋戲,http://4gtv.mumi.rip:9877/301/4gtv-live145/index.m3u8
靖天戲劇台,http://4gtv.mumi.rip:9877/116/4gtv-4gtv058/index.m3u8
金光布袋戲,http://4gtv.mumi.rip:9877/236/4gtv-live144/index.m3u8
采昌影劇台,http://4gtv.mumi.rip:9877/25/4gtv-4gtv049/index.m3u8
鳳梨直擊台,http://4gtv.mumi.rip:9877/93/4gtv-4gtv035/index.m3u8
香蕉直擊台,http://4gtv.mumi.rip:9877/94/4gtv-4gtv038/index.m3u8
經典電影台,http://4gtv.mumi.rip:9877/201/4gtv-live021/index.m3u8
精選動漫台,http://4gtv.mumi.rip:9877/204/4gtv-live024/index.m3u8
TVBS新聞台,http://4gtv.mumi.rip:9877/291/4gtv-4gtv072/index.m3u8
HITS頻道,http://4gtv.mumi.rip:9877/186/4gtv-live620/index.m3u8
三立新聞台,http://4gtv.mumi.rip:9877/229/4gtv-live089/index.m3u8
TRACE Sport Stars,http://4gtv.mumi.rip:9877/57/4gtv-4gtv077/index.m3u8
TechStorm,http://4gtv.mumi.rip:9877/181/4gtv-live109/index.m3u8
好消息,http://4gtv.mumi.rip:9877/9/litv-ftv16/index.m3u8
尼克兒童頻道,http://4gtv.mumi.rip:9877/185/4gtv-live105/index.m3u8
愛爾達娛樂台,http://4gtv.mumi.rip:9877/19/4gtv-4gtv070/index.m3u8
CLASSICA 古典樂,http://4gtv.mumi.rip:9877/80/4gtv-4gtv059/index.m3u8
新唐人亞太台,http://4gtv.mumi.rip:9877/223/4gtv-live050/index.m3u8
東森購物四台,http://4gtv.mumi.rip:9877/286/4gtv-live049/index.m3u8
東森購物一台,http://4gtv.mumi.rip:9877/173/4gtv-live047/index.m3u8
鏡電視新聞台,http://4gtv.mumi.rip:9877/268/4gtv-4gtv075/index.m3u8
SBN全球財經台,http://4gtv.mumi.rip:9877/224/4gtv-live060/index.m3u8
東森購物二台,http://4gtv.mumi.rip:9877/174/4gtv-live046/index.m3u8
豬哥亮歌廳秀,http://4gtv.mumi.rip:9877/113/4gtv-4gtv006/index.m3u8
東森購物三台,http://4gtv.mumi.rip:9877/287/4gtv-live048/index.m3u8
博斯高球二台,http://4gtv.mumi.rip:9877/298/litv-longturn06/index.m3u8
博斯運動一台,http://4gtv.mumi.rip:9877/50/litv-longturn07/index.m3u8
博斯運動二台,http://4gtv.mumi.rip:9877/299/litv-longturn08/index.m3u8
車迷TV,http://4gtv.mumi.rip:9877/160/4gtv-live201/index.m3u8
fun探索娛樂台,http://4gtv.mumi.rip:9877/274/4gtv-live011/index.m3u8
FRANCE24 英文台,http://4gtv.mumi.rip:9877/316/4gtv-live146/index.m3u8
CNBC Asia 財經台,http://4gtv.mumi.rip:9877/235/4gtv-live130/index.m3u8
ELTV生活英語台,http://4gtv.mumi.rip:9877/106/litv-longturn20/index.m3u8
靖天國際,http://4gtv.mumi.rip:9877/84/4gtv-4gtv063/index.m3u8
華視,http://4gtv.mumi.rip:9877/6/4gtv-4gtv041/index.m3u8
中視,http://4gtv.mumi.rip:9877/4/4gtv-4gtv040/index.m3u8
History 歷史頻道,http://4gtv.mumi.rip:9877/214/4gtv-live026/index.m3u8
戲劇免費看 1台,http://4gtv.mumi.rip:9877/270/4gtv-live010/index.m3u8
Lifetime 娛樂頻道,http://4gtv.mumi.rip:9877/217/4gtv-live029/index.m3u8
東森財經新聞台,http://4gtv.mumi.rip:9877/293/4gtv-4gtv153/index.m3u8
半島國際新聞台,http://4gtv.mumi.rip:9877/85/litv-ftv10/index.m3u8
原住民頻道,http://4gtv.mumi.rip:9877/273/4gtv-live014/index.m3u8
Nick Jr. 兒童頻道,http://4gtv.mumi.rip:9877/219/4gtv-live032/index.m3u8
電影原聲台CMusic,http://4gtv.mumi.rip:9877/218/4gtv-live031/index.m3u8
幸福空間居家台,http://4gtv.mumi.rip:9877/168/4gtv-live206/index.m3u8
CI 罪案偵查頻道,http://4gtv.mumi.rip:9877/215/4gtv-live027/index.m3u8
影迷數位紀實台,http://4gtv.mumi.rip:9877/212/4gtv-live023/index.m3u8
影迷數位電影台,http://4gtv.mumi.rip:9877/40/4gtv-4gtv011/index.m3u8
ARIRANG阿里郎頻道,http://4gtv.mumi.rip:9877/189/4gtv-4gtv079/index.m3u8
靖洋卡通Nice Bingo,http://4gtv.mumi.rip:9877/59/4gtv-4gtv057/index.m3u8
TVBS,http://4gtv.mumi.rip:9877/183/4gtv-4gtv073/index.m3u8
靖天歡樂台,http://4gtv.mumi.rip:9877/119/4gtv-4gtv054/index.m3u8
MTV Live  音樂頻道,http://4gtv.mumi.rip:9877/213/4gtv-live025/index.m3u8
視納華仁紀實頻道,http://4gtv.mumi.rip:9877/38/4gtv-4gtv013/index.m3u8
愛爾達綜合,http://4gtv.mumi.rip:9877/237/4gtv-live120/index.m3u8
LiveABC互動英語頻道,http://4gtv.mumi.rip:9877/188/4gtv-live030/index.m3u8
DreamWorks 夢工廠動畫,http://4gtv.mumi.rip:9877/282/4gtv-live017/index.m3u8
TV5MONDE STYLE  生活時尚,http://4gtv.mumi.rip:9877/178/4gtv-live122/index.m3u8
My Cinema Europe  我的歐洲電影,http://4gtv.mumi.rip:9877/176/4gtv-live157/index.m3u8

🇹🇼台灣電視³🆙,#genre#
東森新聞台,https://iptv.vip-tptv.xyz/litv.php?id=4gtv-4gtv152
TVBS新聞台,https://iptv.vip-tptv.xyz/litv.php?id=4gtv-4gtv072
中天新聞台,https://iptv.vip-tptv.xyz/litv.php?id=4gtv-4gtv009
八大綜合台,https://iptv.vip-tptv.xyz/litv.php?id=4gtv-4gtv039
八大精彩台,https://iptv.vip-tptv.xyz/litv.php?id=4gtv-4gtv034
TVBS歡樂台,https://iptv.vip-tptv.xyz/litv.php?id=4gtv-4gtv068
中視菁采台,https://iptv.vip-tptv.xyz/litv.php?id=4gtv-4gtv064
中視經典,https://iptv.vip-tptv.xyz/litv.php?id=4gtv-4gtv080
東森電影台,https://iptv.vip-tptv.xyz/tv.php?id=4
靖天戲劇台,https://iptv.vip-tptv.xyz/litv.php?id=4gtv-4gtv058
靖天映畫,https://iptv.vip-tptv.xyz/litv.php?id=4gtv-4gtv055
靖天電影台,https://iptv.vip-tptv.xyz/litv.php?id=4gtv-4gtv061
靖天歡樂台,https://iptv.vip-tptv.xyz/litv.php?id=4gtv-4gtv054
龍華偶像,https://iptv.vip-tptv.xyz/litv.php?id=litv-longturn12
龍華動畫,https://iptv.vip-tptv.xyz/litv.php?id=litv-longturn01
龍華戲劇,https://iptv.vip-tptv.xyz/litv.php?id=litv-longturn18
龍華日韓台,https://iptv.vip-tptv.xyz/litv.php?id=litv-longturn11
龍華經典,https://iptv.vip-tptv.xyz/litv.php?id=litv-longturn21
龍華電影,https://iptv.vip-tptv.xyz/litv.php?id=litv-longturn03
華視,https://iptv.vip-tptv.xyz/litv.php?id=4gtv-4gtv041
公視,https://iptv.vip-tptv.xyz/litv.php?id=4gtv-4gtv066
公視,https://iptv.vip-tptv.xyz/litv.php?id=4gtv-4gtv042
采昌影劇台,https://iptv.vip-tptv.xyz/litv.php?id=4gtv-4gtv049
博斯魅力網,https://iptv.vip-tptv.xyz/litv.php?id=litv-longturn04
博斯高球2台,https://iptv.vip-tptv.xyz/litv.php?id=litv-longturn06
博斯運動二台,https://iptv.vip-tptv.xyz/litv.php?id=litv-longturn08
博斯網球台,https://iptv.vip-tptv.xyz/litv.php?id=litv-longturn09
靖天卡通台,https://iptv.vip-tptv.xyz/litv.php?id=4gtv-4gtv044
非凡商業台,https://iptv.vip-tptv.xyz/litv.php?id=4gtv-4gtv048
台視財經台,https://iptv.vip-tptv.xyz/litv.php?id=4gtv-4gtv056
靖天日本台,https://iptv.vip-tptv.xyz/litv.php?id=4gtv-4gtv047
靖天資訊台,https://iptv.vip-tptv.xyz/litv.php?id=4gtv-4gtv065
TVBS精采台,https://iptv.vip-tptv.xyz/litv.php?id=4gtv-4gtv067
靖天綜合台,https://iptv.vip-tptv.xyz/litv.php?id=4gtv-4gtv046
靖天育樂台,https://iptv.vip-tptv.xyz/litv.php?id=4gtv-4gtv062
三立綜合台,https://iptv.vip-tptv.xyz/litv.php?id=4gtv-4gtv006

🇹🇼台灣電視⁴🆙,#genre#
中視,http://zowzow.yundown.cf/php/litv.php?id=4gtv-4gtv040
中視新聞,http://zowzow.yundown.cf/php/litv.php?id=4gtv-4gtv074
中視經典,http://zowzow.yundown.cf/php/litv.php?id=4gtv-4gtv080
中視菁采,http://zowzow.yundown.cf/php/litv.php?id=4gtv-4gtv064
民視,http://zowzow.yundown.cf/php/litv.php?id=4gtv-4gtv002
民視第一,http://zowzow.yundown.cf/php/litv.php?id=4gtv-4gtv003
民視新聞,http://zowzow.yundown.cf/php/litv.php?id=litv-ftv13
民視台灣,http://zowzow.yundown.cf/php/litv.php?id=4gtv-4gtv001
公視戲劇,http://zowzow.yundown.cf/php/litv.php?id=4gtv-4gtv042
客家電視,http://zowzow.yundown.cf/php/litv.php?id=4gtv-4gtv043
台視,http://zowzow.yundown.cf/php/litv.php?id=4gtv-4gtv066
台視新聞,http://zowzow.yundown.cf/php/litv.php?id=4gtv-4gtv051
台視財經,http://zowzow.yundown.cf/php/litv.php?id=4gtv-4gtv056
台灣戲劇,http://zowzow.yundown.cf/php/litv.php?id=litv-longturn22
華視新聞,http://zowzow.yundown.cf/php/litv.php?id=4gtv-4gtv052
豬哥亮歌廳秀,http://zowzow.yundown.cf/php/litv.php?id=4gtv-4gtv006
i-Fun動漫,http://zowzow.yundown.cf/php/litv.php?id=litv-ftv15
八大精彩,http://zowzow.yundown.cf/php/litv.php?id=4gtv-4gtv034
八大綜藝,http://zowzow.yundown.cf/php/litv.php?id=4gtv-4gtv039
ELTA娛樂,http://zowzow.yundown.cf/php/litv.php?id=4gtv-4gtv070
ELTA生活英語,http://zowzow.yundown.cf/php/litv.php?id=litv-longturn20
亞洲旅遊,http://zowzow.yundown.cf/php/litv.php?id=4gtv-4gtv076
民視影劇,http://zowzow.yundown.cf/php/litv.php?id=litv-ftv09
民視綜藝,http://zowzow.yundown.cf/php/litv.php?id=4gtv-4gtv004
民視旅遊,http://zowzow.yundown.cf/php/litv.php?id=litv-ftv07
TVBS歡樂,http://zowzow.yundown.cf/php/litv.php?id=4gtv-4gtv068
TVBS精采,http://zowzow.yundown.cf/php/litv.php?id=4gtv-4gtv067
好消息,http://zowzow.yundown.cf/php/litv.php?id=litv-ftv16
好消息2,http://zowzow.yundown.cf/php/litv.php?id=litv-ftv17
鏡新聞,http://zowzow.yundown.cf/php/litv.php?id=4gtv-4gtv075
寰宇新聞,http://zowzow.yundown.cf/php/litv.php?id=litv-longturn14
東森新聞,http://zowzow.yundown.cf/php/litv.php?id=4gtv-4gtv152
中天新聞,http://zowzow.yundown.cf/php/litv.php?id=4gtv-4gtv009
民視新聞 ,http://zowzow.yundown.cf/php/litv.php?id=litv-ftv13
TVBS新聞,http://zowzow.yundown.cf/php/litv.php?id=4gtv-4gtv072
TVBS,http://zowzow.yundown.cf/php/litv.php?id=4gtv-4gtv073
東森財經,http://zowzow.yundown.cf/php/litv.php?id=4gtv-4gtv153
非凡新聞,http://zowzow.yundown.cf/php/litv.php?id=4gtv-4gtv010
寰宇財經,http://zowzow.yundown.cf/php/litv.php?id=litv-longturn23
AMC最愛電影,http://zowzow.yundown.cf/php/litv.php?id=4gtv-4gtv017
博斯無限,http://zowzow.yundown.cf/php/litv.php?id=litv-longturn10
博斯無限2,http://zowzow.yundown.cf/php/litv.php?id=litv-longturn13
博斯網球,http://zowzow.yundown.cf/php/litv.php?id=litv-longturn09
博斯運動,http://zowzow.yundown.cf/php/litv.php?id=litv-longturn07
博斯運動2,http://zowzow.yundown.cf/php/litv.php?id=litv-longturn08
博斯高球,http://zowzow.yundown.cf/php/litv.php?id=litv-longturn05
博斯高球2,http://zowzow.yundown.cf/php/litv.php?id=litv-longturn06
博斯魅力,http://zowzow.yundown.cf/php/litv.php?id=litv-longturn04
時尚運動X,http://zowzow.yundown.cf/php/litv.php?id=4gtv-4gtv014
智林體育,http://zowzow.yundown.cf/php/litv.php?id=4gtv-4gtv101
華視,http://zowzow.yundown.cf/php/litv.php?id=4gtv-4gtv041
中天亞洲,http://zowzow.yundown.cf/php/litv.php?id=4gtv-4gtv109
靖天卡通,http://zowzow.yundown.cf/php/litv.php?id=4gtv-4gtv044
靖天國際,http://zowzow.yundown.cf/php/litv.php?id=4gtv-4gtv063
靖天戲劇,http://zowzow.yundown.cf/php/litv.php?id=4gtv-4gtv058
靖天日本,http://zowzow.yundown.cf/php/litv.php?id=4gtv-4gtv047
靖天映畫,http://zowzow.yundown.cf/php/litv.php?id=4gtv-4gtv055
靖天歡樂,http://zowzow.yundown.cf/php/litv.php?id=4gtv-4gtv054
靖天綜合,http://zowzow.yundown.cf/php/litv.php?id=4gtv-4gtv046
靖天育樂,http://zowzow.yundown.cf/php/litv.php?id=4gtv-4gtv062
靖天資訊,http://zowzow.yundown.cf/php/litv.php?id=4gtv-4gtv065
靖天電影,http://zowzow.yundown.cf/php/litv.php?id=4gtv-4gtv061
靖洋卡通,http://zowzow.yundown.cf/php/litv.php?id=4gtv-4gtv057
靖洋戲劇,http://zowzow.yundown.cf/php/litv.php?id=4gtv-4gtv045
龍華偶像,http://zowzow.yundown.cf/php/litv.php?id=litv-longturn12
龍華卡通,http://zowzow.yundown.cf/php/litv.php?id=litv-longturn01
龍華戲劇,http://zowzow.yundown.cf/php/litv.php?id=litv-longturn18
龍華日韓,http://zowzow.yundown.cf/php/litv.php?id=litv-longturn11
龍華經典,http://zowzow.yundown.cf/php/litv.php?id=litv-longturn21
龍華電影,http://zowzow.yundown.cf/php/litv.php?id=litv-longturn03
寰宇新聞2,http://zowzow.yundown.cf/php/litv.php?id=litv-longturn15
非凡商業,http://zowzow.yundown.cf/php/litv.php?id=4gtv-4gtv048
第1商業,http://zowzow.yundown.cf/php/litv.php?id=4gtv-4gtv104
采昌影劇,http://zowzow.yundown.cf/php/litv.php?id=4gtv-4gtv049
影迷數位電影,http://zowzow.yundown.cf/php/litv.php?id=4gtv-4gtv011
ArirangTV,http://zowzow.yundown.cf/php/litv.php?id=4gtv-4gtv079
Classica古典樂,http://zowzow.yundown.cf/php/litv.php?id=4gtv-4gtv059
GINXEsportsTV,http://zowzow.yundown.cf/php/litv.php?id=4gtv-4gtv053
Globetrotter環遊旅行家,http://zowzow.yundown.cf/php/litv.php?id=4gtv-4gtv016
MezzoLive,http://zowzow.yundown.cf/php/litv.php?id=4gtv-4gtv083
Smart知識,http://zowzow.yundown.cf/php/litv.php?id=litv-longturn19
TraceUrban,http://zowzow.yundown.cf/php/litv.php?id=4gtv-4gtv082
TraceSports,http://zowzow.yundown.cf/php/litv.php?id=4gtv-4gtv077
VOA美國之音,http://zowzow.yundown.cf/php/litv.php?id=litv-ftv03
半島國際新聞,http://zowzow.yundown.cf/php/litv.php?id=litv-ftv10
視納華仁紀實,http://zowzow.yundown.cf/php/litv.php?id=4gtv-4gtv013
達文西,http://zowzow.yundown.cf/php/litv.php?id=4gtv-4gtv018
國會頻道1,http://zowzow.yundown.cf/php/litv.php?id=4gtv-4gtv084
國會頻道2,http://zowzow.yundown.cf/php/litv.php?id=4gtv-4gtv085

🇹🇼台灣電視⁵🆙,#genre#
中視,http://wanjiatv.net/litv.php?id=4gtv-4gtv040
中視新聞,http://wanjiatv.net/litv.php?id=4gtv-4gtv074
中視經典,http://wanjiatv.net/litv.php?id=4gtv-4gtv080
中視菁采,http://wanjiatv.net/litv.php?id=4gtv-4gtv064
民視,http://wanjiatv.net/litv.php?id=4gtv-4gtv002
民視第一,http://wanjiatv.net/litv.php?id=4gtv-4gtv003
民視新聞,http://wanjiatv.net/litv.php?id=litv-ftv13
民視台灣,http://wanjiatv.net/litv.php?id=4gtv-4gtv001
公視戲劇,http://wanjiatv.net/litv.php?id=4gtv-4gtv042
客家電視,http://wanjiatv.net/litv.php?id=4gtv-4gtv043
台視,http://wanjiatv.net/litv.php?id=4gtv-4gtv066
台視新聞,http://wanjiatv.net/litv.php?id=4gtv-4gtv051
台視財經,http://wanjiatv.net/litv.php?id=4gtv-4gtv056
台灣戲劇,http://wanjiatv.net/litv.php?id=litv-longturn22
華視新聞,http://wanjiatv.net/litv.php?id=4gtv-4gtv052
豬哥亮歌廳秀,http://wanjiatv.net/litv.php?id=4gtv-4gtv006
i-Fun動漫,http://wanjiatv.net/litv.php?id=litv-ftv15
八大精彩,http://wanjiatv.net/litv.php?id=4gtv-4gtv034
八大綜藝,http://wanjiatv.net/litv.php?id=4gtv-4gtv039
ELTA娛樂,http://wanjiatv.net/litv.php?id=4gtv-4gtv070
ELTA生活英語,http://wanjiatv.net/litv.php?id=litv-longturn20
亞洲旅遊,http://wanjiatv.net/litv.php?id=4gtv-4gtv076
民視影劇,http://wanjiatv.net/litv.php?id=litv-ftv09
民視綜藝,http://wanjiatv.net/litv.php?id=4gtv-4gtv004
民視旅遊,http://wanjiatv.net/litv.php?id=litv-ftv07
TVBS歡樂,http://wanjiatv.net/litv.php?id=4gtv-4gtv068
TVBS精采,http://wanjiatv.net/litv.php?id=4gtv-4gtv067
好消息,http://wanjiatv.net/litv.php?id=litv-ftv16
好消息2,http://wanjiatv.net/litv.php?id=litv-ftv17
鏡新聞,http://wanjiatv.net/litv.php?id=4gtv-4gtv075
寰宇新聞,http://wanjiatv.net/litv.php?id=litv-longturn14
東森新聞,http://wanjiatv.net/litv.php?id=4gtv-4gtv152
中天新聞,http://wanjiatv.net/litv.php?id=4gtv-4gtv009
民視新聞 ,http://wanjiatv.net/litv.php?id=litv-ftv13
TVBS新聞,http://wanjiatv.net/litv.php?id=4gtv-4gtv072
TVBS,http://wanjiatv.net/litv.php?id=4gtv-4gtv073
東森財經,http://wanjiatv.net/litv.php?id=4gtv-4gtv153
非凡新聞,http://wanjiatv.net/litv.php?id=4gtv-4gtv010
寰宇財經,http://wanjiatv.net/litv.php?id=litv-longturn23
AMC最愛電影,http://wanjiatv.net/litv.php?id=4gtv-4gtv017
博斯無限,http://wanjiatv.net/litv.php?id=litv-longturn10
博斯無限2,http://wanjiatv.net/litv.php?id=litv-longturn13
博斯網球,http://wanjiatv.net/litv.php?id=litv-longturn09
博斯運動,http://wanjiatv.net/litv.php?id=litv-longturn07
博斯運動2,http://wanjiatv.net/litv.php?id=litv-longturn08
博斯高球,http://wanjiatv.net/litv.php?id=litv-longturn05
博斯高球2,http://wanjiatv.net/litv.php?id=litv-longturn06
博斯魅力,http://wanjiatv.net/litv.php?id=litv-longturn04
時尚運動X,http://wanjiatv.net/litv.php?id=4gtv-4gtv014
智林體育,http://wanjiatv.net/litv.php?id=4gtv-4gtv101
華視,http://wanjiatv.net/litv.php?id=4gtv-4gtv041
中天亞洲,http://wanjiatv.net/litv.php?id=4gtv-4gtv109
靖天卡通,http://wanjiatv.net/litv.php?id=4gtv-4gtv044
靖天國際,http://wanjiatv.net/litv.php?id=4gtv-4gtv063
靖天戲劇,http://wanjiatv.net/litv.php?id=4gtv-4gtv058
靖天日本,http://wanjiatv.net/litv.php?id=4gtv-4gtv047
靖天映畫,http://wanjiatv.net/litv.php?id=4gtv-4gtv055
靖天歡樂,http://wanjiatv.net/litv.php?id=4gtv-4gtv054
靖天綜合,http://wanjiatv.net/litv.php?id=4gtv-4gtv046
靖天育樂,http://wanjiatv.net/litv.php?id=4gtv-4gtv062
靖天資訊,http://wanjiatv.net/litv.php?id=4gtv-4gtv065
靖天電影,http://wanjiatv.net/litv.php?id=4gtv-4gtv061
靖洋卡通,http://wanjiatv.net/litv.php?id=4gtv-4gtv057
靖洋戲劇,http://wanjiatv.net/litv.php?id=4gtv-4gtv045
龍華偶像,http://wanjiatv.net/litv.php?id=litv-longturn12
龍華卡通,http://wanjiatv.net/litv.php?id=litv-longturn01
龍華戲劇,http://wanjiatv.net/litv.php?id=litv-longturn18
龍華日韓,http://wanjiatv.net/litv.php?id=litv-longturn11
龍華經典,http://wanjiatv.net/litv.php?id=litv-longturn21
龍華電影,http://wanjiatv.net/litv.php?id=litv-longturn03
寰宇新聞2,http://wanjiatv.net/litv.php?id=litv-longturn15
非凡商業,http://wanjiatv.net/litv.php?id=4gtv-4gtv048
第1商業,http://wanjiatv.net/litv.php?id=4gtv-4gtv104
采昌影劇,http://wanjiatv.net/litv.php?id=4gtv-4gtv049
影迷數位電影,http://wanjiatv.net/litv.php?id=4gtv-4gtv011
ArirangTV,http://wanjiatv.net/litv.php?id=4gtv-4gtv079
Classica古典樂,http://wanjiatv.net/litv.php?id=4gtv-4gtv059
GINXEsportsTV,http://wanjiatv.net/litv.php?id=4gtv-4gtv053
Globetrotter環遊旅行家,http://wanjiatv.net/litv.php?id=4gtv-4gtv016
MezzoLive,http://wanjiatv.net/litv.php?id=4gtv-4gtv083
Smart知識,http://wanjiatv.net/litv.php?id=litv-longturn19
TraceUrban,http://wanjiatv.net/litv.php?id=4gtv-4gtv082
TraceSports,http://wanjiatv.net/litv.php?id=4gtv-4gtv077
VOA美國之音,http://wanjiatv.net/litv.php?id=litv-ftv03
半島國際新聞,http://wanjiatv.net/litv.php?id=litv-ftv10
視納華仁紀實,http://wanjiatv.net/litv.php?id=4gtv-4gtv013
達文西,http://wanjiatv.net/litv.php?id=4gtv-4gtv018
國會頻道1,http://wanjiatv.net/litv.php?id=4gtv-4gtv084
國會頻道2,http://wanjiatv.net/litv.php?id=4gtv-4gtv085

🇨🇳大陸央視,#genre#
CCTV1综合,http://111.29.9.33:6610/200000001898/460000089800010011/1.m3u8?IASHttpSessionId=RR
CCTV1综合,http://111.29.9.33:6610/200000001898/460000089800010144/1.m3u8?IASHttpSessionId=RR
CCTV2财经,http://111.29.9.33:6610/200000001898/460000089800010211/1.m3u8?IASHttpSessionId=RR
CCTV3综艺,http://111.29.9.33:6610/200000001898/460000089800010212/1.m3u8?IASHttpSessionId=RR
CCTV4中文国际,http://111.29.9.33:6610/200000001898/460000089800010017/1.m3u8?IASHttpSessionId=RR
CCTV5体育,http://111.29.9.33:6610/200000001898/460000089800010139/1.m3u8?IASHttpSessionId=RR
CCTV5体育,http://111.29.9.33:6610/200000001898/460000089800010145/1.m3u8?IASHttpSessionId=RR
CCTV5+体育赛事,http://111.29.9.33:6610/200000001898/460000089800010202/1.m3u8?IASHttpSessionId=RR
CCTV6电影,http://111.29.9.33:6610/200000001898/460000089800010214/1.m3u8?IASHttpSessionId=RR
CCTV7国防军事,http://111.29.9.33:6610/200000001898/460000089800010215/1.m3u8?IASHttpSessionId=RR
CCTV8电视剧,http://111.29.9.33:6610/200000001898/460000089800010216/1.m3u8?IASHttpSessionId=RR
CCTV9纪录,http://111.29.9.33:6610/200000001898/460000089800010052/1.m3u8?IASHttpSessionId=RR
CCTV9纪录,http://111.29.9.33:6610/200000001898/460000089800010217/1.m3u8?IASHttpSessionId=RR
CCTV10科教,http://111.29.9.33:6610/200000001898/460000089800010203/1.m3u8?IASHttpSessionId=RR
CCTV11戏曲,http://111.29.9.33:6610/200000001898/460000089800010092/1.m3u8?IASHttpSessionId=RR
CCTV12社会与法,http://111.29.9.33:6610/200000001898/460000089800010205/1.m3u8?IASHttpSessionId=RR
CCTV13新闻,http://111.29.9.33:6610/200000001898/460000089800010093/1.m3u8?IASHttpSessionId=RR
CCTV14少儿,http://111.29.9.33:6610/200000001898/460000089800010207/1.m3u8?IASHttpSessionId=RR
CCTV15音乐,http://111.29.9.33:6610/200000001898/460000089800010094/1.m3u8?IASHttpSessionId=RR
CCTV16奥林匹克,http://111.29.9.33:6610/200000001898/460000089800010142/1.m3u8?IASHttpSessionId=RR
CCTV17农业农村,http://111.29.9.33:6610/200000001898/460000089800010210/1.m3u8?IASHttpSessionId=RR
CETV1,http://111.29.9.33:6610/200000001898/460000089800010103/1.m3u8?IASHttpSessionId=RR
CETV2,http://111.29.9.33:6610/200000001898/460000089800010104/1.m3u8?IASHttpSessionId=RR
CETV4,http://111.29.9.33:6610/200000001898/460000089800010105/1.m3u8?IASHttpSessionId=RR
CGTN,http://111.29.9.33:6610/200000001898/460000089800010095/1.m3u8?IASHttpSessionId=RR
CGTN,http://111.29.9.33:6610/200000001898/460000089800010137/1.m3u8?IASHttpSessionId=RR

🇨🇳大陸衛視,#genre#
广西卫视,http://111.29.9.33:6610/200000001898/460000089800010099/1.m3u8?IASHttpSessionId=RR
东方卫视,http://111.29.9.33:6610/200000001898/460000089800010054/1.m3u8?IASHttpSessionId=RR
东方卫视,http://111.29.9.33:6610/200000001898/460000089800010067/1.m3u8?IASHttpSessionId=RR
东方卫视,http://111.29.9.33:6610/200000001898/460000089800010219/1.m3u8?IASHttpSessionId=RR
浙江卫视,http://111.29.9.33:6610/200000001898/460000089800010070/1.m3u8?IASHttpSessionId=RR
江苏卫视,http://111.29.9.33:6610/200000001898/460000089800010059/1.m3u8?IASHttpSessionId=RR
江苏卫视,http://111.29.9.33:6610/200000001898/460000089800010225/1.m3u8?IASHttpSessionId=RR
湖南卫视,http://111.29.9.33:6610/200000001898/460000089800010058/1.m3u8?IASHttpSessionId=RR
湖南卫视,http://111.29.9.33:6610/200000001898/460000089800010224/1.m3u8?IASHttpSessionId=RR
安徽卫视,http://111.29.9.33:6610/200000001898/460000089800010041/1.m3u8?IASHttpSessionId=RR
重庆卫视,http://111.29.9.33:6610/200000001898/460000089800010053/1.m3u8?IASHttpSessionId=RR
重庆卫视,http://111.29.9.33:6610/200000001898/460000089800010218/1.m3u8?IASHttpSessionId=RR
广东卫视,http://111.29.9.33:6610/200000001898/460000089800010055/1.m3u8?IASHttpSessionId=RR
广东卫视,http://111.29.9.33:6610/200000001898/460000089800010221/1.m3u8?IASHttpSessionId=RR
黑龙江卫视,http://111.29.9.33:6610/200000001898/460000089800010056/1.m3u8?IASHttpSessionId=RR
黑龙江卫视,http://111.29.9.33:6610/200000001898/460000089800010222/1.m3u8?IASHttpSessionId=RR
湖北卫视,http://111.29.9.33:6610/200000001898/460000089800010057/1.m3u8?IASHttpSessionId=RR
湖北卫视,http://111.29.9.33:6610/200000001898/460000089800010223/1.m3u8?IASHttpSessionId=RR
江西卫视,http://111.29.9.33:6610/200000001898/460000089800010060/1.m3u8?IASHttpSessionId=RR
辽宁卫视,http://111.29.9.33:6610/200000001898/460000089800010061/1.m3u8?IASHttpSessionId=RR
山东卫视,http://111.29.9.33:6610/200000001898/460000089800010066/1.m3u8?IASHttpSessionId=RR
深圳卫视,http://111.29.9.33:6610/200000001898/460000089800010068/1.m3u8?IASHttpSessionId=RR
天津卫视,http://111.29.9.33:6610/200000001898/460000089800010069/1.m3u8?IASHttpSessionId=RR
河南卫视,http://111.29.9.33:6610/200000001898/460000089800010071/1.m3u8?IASHttpSessionId=RR
吉林卫视,http://111.29.9.33:6610/200000001898/460000089800010075/1.m3u8?IASHttpSessionId=RR
新海南,http://111.29.9.33:6610/200000001898/460000089800010090/1.m3u8?IASHttpSessionId=RR
海南卫视,http://111.29.9.33:6610/200000001898/460000089800010083/1.m3u8?IASHttpSessionId=RR
广东珠江,http://111.29.9.33:6610/200000001898/460000089800010091/1.m3u8?IASHttpSessionId=RR
东南卫视,http://111.29.9.33:6610/200000001898/460000089800010096/1.m3u8?IASHttpSessionId=RR
甘肃卫视,http://111.29.9.33:6610/200000001898/460000089800010098/1.m3u8?IASHttpSessionId=RR
贵州卫视,http://111.29.9.33:6610/200000001898/460000089800010100/1.m3u8?IASHttpSessionId=RR
河北卫视,http://111.29.9.33:6610/200000001898/460000089800010101/1.m3u8?IASHttpSessionId=RR
大湾区卫视,http://111.29.9.33:6610/200000001898/460000089800010108/1.m3u8?IASHttpSessionId=RR
内蒙古卫视,http://111.29.9.33:6610/200000001898/460000089800010109/1.m3u8?IASHttpSessionId=RR
宁夏卫视,http://111.29.9.33:6610/200000001898/460000089800010110/1.m3u8?IASHttpSessionId=RR
青海卫视,http://111.29.9.33:6610/200000001898/460000089800010111/1.m3u8?IASHttpSessionId=RR
山东教育卫视,http://111.29.9.33:6610/200000001898/460000089800010112/1.m3u8?IASHttpSessionId=RR
陕西卫视,http://111.29.9.33:6610/200000001898/460000089800010113/1.m3u8?IASHttpSessionId=RR
山西卫视,http://111.29.9.33:6610/200000001898/460000089800010114/1.m3u8?IASHttpSessionId=RR
四川卫视,http://111.29.9.33:6610/200000001898/460000089800010115/1.m3u8?IASHttpSessionId=RR
新疆卫视,http://111.29.9.33:6610/200000001898/460000089800010116/1.m3u8?IASHttpSessionId=RR
云南卫视,http://111.29.9.33:6610/200000001898/460000089800010119/1.m3u8?IASHttpSessionId=RR
西藏卫视,http://111.29.9.33:6610/200000001898/460000089800010123/1.m3u8?IASHttpSessionId=RR
北京卫视,http://111.29.9.33:6610/200000001898/460000089800010143/1.m3u8?IASHttpSessionId=RR
嘉佳卡通,http://111.29.9.33:6610/200000001898/460000089800010102/1.m3u8?IASHttpSessionId=RR
金鹰纪实,http://111.29.9.33:6610/200000001898/460000089800010106/1.m3u8?IASHttpSessionId=RR
金鹰卡通,http://111.29.9.33:6610/200000001898/460000089800010107/1.m3u8?IASHttpSessionId=RR
哈哈炫动,http://111.29.9.33:6610/200000001898/460000089800010117/1.m3u8?IASHttpSessionId=RR
优漫卡通,http://111.29.9.33:6610/200000001898/460000089800010118/1.m3u8?IASHttpSessionId=RR

🇨🇳NewTV,#genre#
NEWTV爱情剧场,http://111.29.9.33:6610/200000001898/460000089800010000/1.m3u8?IASHttpSessionId=RR
NEWTV黑莓动画,http://111.29.9.33:6610/200000001898/460000089800010002/1.m3u8?IASHttpSessionId=RR
NEWTV动作电影,http://111.29.9.33:6610/200000001898/460000089800010003/1.m3u8?IASHttpSessionId=RR
NEWTV古装剧场,http://111.29.9.33:6610/200000001898/460000089800010004/1.m3u8?IASHttpSessionId=RR
NEWTV潮婆辣妈,http://111.29.9.33:6610/200000001898/460000089800010005/1.m3u8?IASHttpSessionId=RR
NEWTV东北热剧,http://111.29.9.33:6610/200000001898/460000089800010021/1.m3u8?IASHttpSessionId=RR
NEWTV欢乐剧场,http://111.29.9.33:6610/200000001898/460000089800010025/1.m3u8?IASHttpSessionId=RR
NEWTV炫舞未来,http://111.29.9.33:6610/200000001898/460000089800010039/1.m3u8?IASHttpSessionId=RR
NEWTV超级综艺,http://111.29.9.33:6610/200000001898/460000089800010062/1.m3u8?IASHttpSessionId=RR
NEWTV超级体育,http://111.29.9.33:6610/200000001898/460000089800010063/1.m3u8?IASHttpSessionId=RR
NEWTV超级电影,http://111.29.9.33:6610/200000001898/460000089800010064/1.m3u8?IASHttpSessionId=RR
NEWTV超级电视剧,http://111.29.9.33:6610/200000001898/460000089800010065/1.m3u8?IASHttpSessionId=RR
NEWTV精品大剧,http://111.29.9.33:6610/200000001898/460000089800010072/1.m3u8?IASHttpSessionId=RR
NEWTV黑莓电影,http://111.29.9.33:6610/200000001898/460000089800010073/1.m3u8?IASHttpSessionId=RR

🇹🇼卡通動漫,#genre#
動漫輪播-柯南1,https://live.metshop.top/douyu/1487654
動漫輪播-柯南2,https://live.metshop.top/douyu/11954507
動漫輪播-海綿寶寶,https://live.metshop.top/douyu/3949681
動漫輪播-成龍歷險記,https://live.metshop.top/douyu/2287949
動漫輪播-獵人,https://live.metshop.top/douyu/6610883
動漫輪播-遊戲王1,https://live.metshop.top/douyu/1218414
動漫輪播-遊戲王2,https://live.metshop.top/douyu/7256376
動漫輪播-航海王,https://live.metshop.top/douyu/997925
動漫輪播-犬夜叉,https://live.metshop.top/douyu/11906591
動漫輪播-動漫合輯,https://live.metshop.top/douyu/7620081
動漫輪播-開心捶捶,https://live.metshop.top/douyu/9018297

動漫輪播-貓和老鼠,https://live.metshop.top/huya/11352879
動漫輪播-虹猫蓝兔七侠传,https://live.metshop.top/huya/22592516
動漫輪播-鼹鼠的故事,https://live.metshop.top/huya/24614736
動漫輪播-CG大合集,https://live.metshop.top/huya/24445013
動漫輪播-暴走兄弟,https://live.metshop.top/huya/11352922
動漫輪播-中華小當家,https://live.metshop.top/huya/11342413
動漫輪播-成龍歷險記,https://live.metshop.top/huya/11352946
動漫輪播-海綿寶寶-,https://live.metshop.top/huya/11352919
動漫輪播-網球王子,https://live.metshop.top/huya/11352882
動漫輪播-七龍珠,https://live.metshop.top/huya/11601966
動漫輪播-頭文字D,https://live.metshop.top/huya/11352889

🐳•斗魚影視,#genre#
热门港剧,https://live.metshop.top/douyu/5522351 
高分电影,https://live.metshop.top/douyu/7254536
豆瓣高分,https://live.metshop.top/douyu/8770422
漫威影院,https://live.metshop.top/douyu/6140589
特辑电影,https://live.metshop.top/douyu/3637778
粤语电影,https://live.metshop.top/douyu/1226741
喜剧电影,https://live.metshop.top/douyu/323876
恐怖电影,https://live.metshop.top/douyu/218859
惊悚电影,https://live.metshop.top/douyu/96577
粤语电影,https://live.metshop.top/douyu/6566671
华语影视,https://live.metshop.top/douyu/3928
恐怖鬼怪,https://live.metshop.top/douyu/1165374
童年阴影,https://live.metshop.top/douyu/2935323
神乐影视,https://live.metshop.top/douyu/85894
吃米滴虫,https://live.metshop.top/douyu/315457
新三国,https://live.metshop.top/douyu/5908256
冰冰影厅,https://live.metshop.top/douyu/74374
奶虫影院,https://live.metshop.top/douyu/263824
贝爷壹厅,https://live.metshop.top/douyu/252802
贝爷贰厅,https://live.metshop.top/douyu/4332
贝爷叁厅,https://live.metshop.top/douyu/36337
凌儿影院,https://live.metshop.top/douyu/1377142
云宝影院,https://live.metshop.top/douyu/7305938
橙記港剧,https://live.metshop.top/douyu/4549169
怡寶影视,https://live.metshop.top/douyu/434971
圆子影视,https://live.metshop.top/douyu/6566658
贝贝影视,https://live.metshop.top/douyu/431460
可乐影视,https://live.metshop.top/douyu/20415
下饭神剧,https://live.metshop.top/douyu/276200
古装神剧,https://live.metshop.top/douyu/338759
酒染影视,https://live.metshop.top/douyu/7550220
芊珏影视,https://live.metshop.top/douyu/8814650
史君说剧,https://live.metshop.top/douyu/9419771
史剧解说,https://live.metshop.top/douyu/297689
老秦说剧,https://live.metshop.top/douyu/9650131
老蔡解说,https://live.metshop.top/douyu/8869614
长片短解,https://live.metshop.top/douyu/9410946
宇哥解说,https://live.metshop.top/douyu/8651489
夜魔人老王,https://live.metshop.top/douyu/610972
皮皮看动漫,https://live.metshop.top/douyu/9837291
开心锤动漫,https://live.metshop.top/douyu/9018297
老邪说电影,https://live.metshop.top/douyu/9222870
洗碗君解说,https://live.metshop.top/douyu/9446706
百晓生说剧,https://live.metshop.top/douyu/9649681
百晓生解说,https://live.metshop.top/douyu/9653063
小司马说剧,https://live.metshop.top/douyu/4808115
小司马解说,https://live.metshop.top/douyu/9660127
星君说电影,https://live.metshop.top/douyu/8014467
刘哔讲电影,https://live.metshop.top/douyu/2632223
老王说电影,https://live.metshop.top/douyu/9687733
牛叔说电影,https://live.metshop.top/douyu/2758565
侃片大师兄,https://live.metshop.top/douyu/9338839
虫哥说电影,https://live.metshop.top/douyu/8915074
电影迷小雅,https://live.metshop.top/douyu/9639225
1900影剧室,https://live.metshop.top/douyu/7796193
刘老师说电影,https://live.metshop.top/douyu/8317926
来呀官人解说,https://live.metshop.top/douyu/9986305
科幻Fans布玛,https://live.metshop.top/douyu/3508304
小片片说大片,https://live.metshop.top/douyu/4258555
大片片说小片,https://live.metshop.top/douyu/7489563
火龙果说电影,https://live.metshop.top/douyu/9559158

🔁•虎牙影視,#genre#
电影_星爷,https://live.metshop.top/huya/11342412
电影_英叔,https://live.metshop.top/huya/11342421
电影_发哥,https://live.metshop.top/huya/11342387
电影_成龙,https://live.metshop.top/huya/11342386
电影_王晶,https://live.metshop.top/huya/11602058
电影_沈腾,https://live.metshop.top/huya/11601968
电影_黄渤,https://live.metshop.top/huya/11352876
电影_强森,https://live.metshop.top/huya/21059581
电影_漫威,https://live.metshop.top/huya/11602034
电影_宇宙,https://live.metshop.top/huya/11342428
电影_怪兽,https://live.metshop.top/huya/21059577
电影_武侠,https://live.metshop.top/huya/11342427
电影_警匪,https://live.metshop.top/huya/11352886
电影_罪犯,https://live.metshop.top/huya/11352962
电影_枪战,https://live.metshop.top/huya/21059579
电影_海盗,https://live.metshop.top/huya/21059595
电影_赛车,https://live.metshop.top/huya/11279247
电影_推荐,https://live.metshop.top/huya/11602041
电影_救援,https://live.metshop.top/huya/21059594
电影_热血,https://live.metshop.top/huya/11352934
电影_盗墓,https://live.metshop.top/huya/21059552
电影_贺岁,https://live.metshop.top/huya/11601971
电影_玄幻,https://live.metshop.top/huya/11342414
电影_谍战,https://live.metshop.top/huya/21059585
电影_战争,https://live.metshop.top/huya/21059592
电影_喜剧,https://live.metshop.top/huya/11352877
电影_港片,https://live.metshop.top/huya/11602043
电影_国产,https://live.metshop.top/huya/11352973
电影_周星星,https://live.metshop.top/huya/11336587
电影_李连杰,https://live.metshop.top/huya/11342390
电影_洪金宝,https://live.metshop.top/huya/11279251
电影_梁家辉,https://live.metshop.top/huya/11342429
电影_刘德华,https://live.metshop.top/huya/11342424
电影_斯坦森,https://live.metshop.top/huya/21059588
电影_小鬼头,https://live.metshop.top/huya/11352963
电影_八点档,https://live.metshop.top/huya/880261
电影_蜘蛛侠,https://live.metshop.top/huya/21059599
电影_贺岁片,https://live.metshop.top/huya/11601986
电影_功夫片,https://live.metshop.top/huya/11352941
电影_黑帮片,https://live.metshop.top/huya/11336719
电影_丧尸片,https://live.metshop.top/huya/21059578
电影_灾难片,https://live.metshop.top/huya/11602075
电影_谍战片,https://live.metshop.top/huya/21059587
电影_战争片,https://live.metshop.top/huya/21059574
电影_犯罪片,https://live.metshop.top/huya/11352974
电影_古装片,https://live.metshop.top/huya/11336590
电影_高分动作,https://live.metshop.top/huya/11352884
电影_动作电影,https://live.metshop.top/huya/11602077
电影_搞笑喜剧,https://live.metshop.top/huya/11342423
电影_喜剧专场,https://live.metshop.top/huya/11602044
电影_欢笑影院,https://live.metshop.top/huya/11352894
电影_不挤影院,https://live.metshop.top/huya/11352897
电影_国产悬疑,https://live.metshop.top/huya/11342395
电影_快意江湖,https://live.metshop.top/huya/11342435
电影_黑帮斗争,https://live.metshop.top/huya/11342419
电影_嫣然影厅,https://live.metshop.top/huya/11601977
电影_许氏三杰,https://live.metshop.top/huya/11602033
电影_经典港片,https://live.metshop.top/huya/11352965
电影_镖行天下,https://live.metshop.top/huya/11352969
电影_高能反转,https://live.metshop.top/huya/11352887
电影_喜乐影院,https://live.metshop.top/huya/21059580
电影_蘑菇影厅,https://live.metshop.top/huya/11601981
电影_搞笑恐怖,https://live.metshop.top/huya/11601960
电影_死神来了,https://live.metshop.top/huya/11352903
电影_变形金刚,https://live.metshop.top/huya/21059596
电影_怪兽系列,https://live.metshop.top/huya/21059554
剧集_老三国,https://live.metshop.top/huya/11602081
剧集_新三国,https://live.metshop.top/huya/11352944
剧集_新水浒,https://live.metshop.top/huya/11342384
剧集_纪晓岚,https://live.metshop.top/huya/11342396
剧集_庆余年,https://live.metshop.top/huya/11352960
剧集_雍正王朝,https://live.metshop.top/huya/11342439
剧集_士兵突击,https://live.metshop.top/huya/11342430
剧集_爱情公寓,https://live.metshop.top/huya/11336726
剧集_武林外传,https://live.metshop.top/huya/21059598
剧集_地下交通站,https://live.metshop.top/huya/11342433
剧集_邻里一家亲,https://live.metshop.top/huya/11342426
搞笑_陈翔六点半,https://live.metshop.top/huya/11274154
解说_鹿哥电影,https://live.metshop.top/huya/24396360
解说_斌哥漫说,https://live.metshop.top/huya/18632116
解说_续哥说电影,https://live.metshop.top/huya/24396472
解说_小川侃电影,https://live.metshop.top/huya/15870999
解说_阿良说剧,https://live.metshop.top/huya/20488841
解说_鱼丸电影,https://live.metshop.top/huya/16615910
解说_阿斗说电影,https://live.metshop.top/huya/13303478
解说_扁豆看电影,https://live.metshop.top/huya/16028551
解说_乌贼说电影,https://live.metshop.top/huya/16604522
解说_大象放映室,https://live.metshop.top/huya/21277391
解说_科幻梦工场,https://live.metshop.top/huya/15152155
解说_亮哥讲电影,https://live.metshop.top/huya/16144175
解说_越哥说电影,https://live.metshop.top/huya/15894162
解说_小冉看电影,https://live.metshop.top/huya/17341907
解说_阿翔说电影,https://live.metshop.top/huya/16868935
解说_虎妞说电影,https://live.metshop.top/huya/20343144
解说_涵哥评电影,https://live.metshop.top/huya/16865726
解说_老皮讲电影,https://live.metshop.top/huya/16968572
解说_默爷侃电影,https://live.metshop.top/huya/17204307
解说_冷君说电影,https://live.metshop.top/huya/16739452
解说_恐怖电影解说,https://live.metshop.top/huya/16741179

🎬YY频道,#genre#
YY电影台01,https://live.metshop.top/yy/1382749892
YY电影台02,https://live.metshop.top/yy/1382735573
YY电影台03,https://live.metshop.top/yy/24921161
YY电影台04,https://live.metshop.top/yy/1382736803
YY电影台05,https://live.metshop.top/yy/1354930924
YY电影台06,https://live.metshop.top/yy/1382745095
YY电影台07,https://live.metshop.top/yy/1355171357
YY电影台08,https://live.metshop.top/yy/24066336
YY电影台09,https://live.metshop.top/yy/1354143966
YY李连杰台,https://live.metshop.top/yy/1459869766
YY成龍影院,https://live.metshop.top/yy/1354888751
YY林正英频,https://live.metshop.top/yy/1351505899
YY林正英道,https://live.metshop.top/yy/1353685311
YY電影輪播,https://live.metshop.top/yy/1353059120
YY歐美電影,https://live.metshop.top/yy/24923327
YY歐美科幻,https://live.metshop.top/yy/37988782
YY歐美動作,https://live.metshop.top/yy/1382745089
YY連續劇台,https://live.metshop.top/yy/1352227227
YY剧场频道,https://live.metshop.top/yy/1382702247
YY剧场怀旧,https://live.metshop.top/yy/1382627144
菲菲影院,https://live.metshop.top/yy/1456668939
幸福影院,https://live.metshop.top/yy/1382737886
经典鬼片,https://live.metshop.top/yy/29460894
米娜影院,https://live.metshop.top/yy/1382690078
豪哥影院,https://live.metshop.top/yy/23402146
绝版电影,https://live.metshop.top/yy/1454587259
港片电影,https://live.metshop.top/yy/1355479289
泡芙影院,https://live.metshop.top/yy/24407222
数码测评,https://live.metshop.top/yy/11352878
速度与激情,https://live.metshop.top/yy/1382749892
林正英电影,https://live.metshop.top/yy/34229877
林正英鬼片,https://live.metshop.top/yy/1351505899
菲菲影院,https://live.metshop.top/yy/1456668939
幸福影视,https://live.metshop.top/yy/1382737886
豪哥影视,https://live.metshop.top/yy/23402146
封神榜,https://live.metshop.top/yy/1353426319
知否知否,https://live.metshop.top/yy/21881901
正阳门下,https://live.metshop.top/yy/1354931580
雍正王朝,https://live.metshop.top/yy/23206872
下饭神剧,https://live.metshop.top/yy/23512910
武林外传,https://live.metshop.top/yy/1355914397
盜暮笔记,https://live.metshop.top/yy/1382702247
神医喜来乐,https://live.metshop.top/yy/1382714119
地下交通站,https://live.metshop.top/yy/1353428972
宰相刘罗锅,https://live.metshop.top/yy/1382745191
隋唐英雄传,https://live.metshop.top/yy/1352475619
豆瓣高分,http://43.138.170.29:35455/douyu/8770422
爱情公寓,http://43.138.170.29:35455/douyu/6863367

💕•音樂時尚,#genre#
parse=1
player=1
周杰伦MV,https://m.douyu.com/7537296
阿七點歌台,https://m.douyu.com/3186217
音樂MV,https://m.douyu.com/3870925

💫其它直播,#genre#
parse=1
player=2
虎牙624（遊戲）,https://m.huya.com/402624
第五人格賽事（遊戲）,https://m.huya.com/461698
17經典台,https://17.live/zh-Hant/live/8494770
17綜藝台,https://17.live/zh-Hant/live/417224

👠Fashion TV_888,#genre#
parse=1
player=2
FTV Midnight,http://bestavb.maria-db.co:8008/iuliana_chelaru/c73qgekdW3/267427
FashionTV Paris L'Original,https://www.fashiontv.com/watch/16891758
FashionTV Singapore,https://www.fashiontv.com/watch/16891759
FashionTV Johannesburg,https://www.fashiontv.com/watch/16891761
FashionTV Tokyo,https://www.fashiontv.com/watch/16891763
FashionTV Paris-Mumbai,https://www.fashiontv.com/watch/16891762
FashionTV New York,https://www.fashiontv.com/watch/16891764

💕短視頻_888,#genre#
parse=1
player=2
大陸抖音,https://diskgirl.com/
韓國KBJ,https://5721004.xyz/player/short.html
日本,https://javtrailers.com/shorts?ref=porndude
點擊換片0,https://www.avrebo.com/?videoId=
點擊換片1,https://fikfap.com/
點擊換片2,https://tik.porn/
點擊換片3,https://www.avrebo.com
點擊換片4,https://xxxtik.com/
點擊換片5,https://fap.bar/
點擊換片6,https://pin.porn/
點擊換片7,https://www.xfollow.com/
點擊換片8,https://ogfap.com/
點擊換片9,https://onlytik.com/
點擊換片10,https://nsfwswipe.com/
點擊換片11,https://fap.titfap.com/?ref=porndude
點擊換片12,https://waptap.com/feed/

🈲VIP頻道¹_888,#genre#
潘朵啦玩美台,http://hotelplay.net/live/pmb8krf68n4z/4d8cf4af8de3574c/476363.ts
松視2台,http://hotelplay.net/live/pmb8krf68n4z/4d8cf4af8de3574c/476366.ts
MYX,http://hotelplay.net/live/pmb8krf68n4z/4d8cf4af8de3574c/476367.m3u8
彩虹e,http://hotelplay.net/live/pmb8krf68n4z/4d8cf4af8de3574c/476368.m3u8
彩虹电影,http://hotelplay.net/live/pmb8krf68n4z/4d8cf4af8de3574c/476369.ts
Look,http://hotelplay.net/live/pmb8krf68n4z/4d8cf4af8de3574c/476370.ts
惊艳,http://hotelplay.net/live/pmb8krf68n4z/4d8cf4af8de3574c/476371.ts
香蕉,http://hotelplay.net/live/pmb8krf68n4z/4d8cf4af8de3574c/476372.ts
pornbox頻道,http://hotelplay.net/live/pmb8krf68n4z/4d8cf4af8de3574c/476374.ts
BABES TV,http://hotelplay.net/live/pmb8krf68n4z/4d8cf4af8de3574c/476375.ts
Playboy,http://hotelplay.net/live/pmb8krf68n4z/4d8cf4af8de3574c/476376.ts
日本一本道,http://hotelplay.net/live/pmb8krf68n4z/4d8cf4af8de3574c/476405.ts
Dorcel HD,http://hotelplay.net/live/pmb8krf68n4z/4d8cf4af8de3574c/476377.ts
Vivid Red HD,http://hotelplay.net/live/pmb8krf68n4z/4d8cf4af8de3574c/476378.ts
Pravite HD,http://hotelplay.net/live/pmb8krf68n4z/4d8cf4af8de3574c/476379.ts
HUSTLER,http://hotelplay.net/live/pmb8krf68n4z/4d8cf4af8de3574c/476410.ts
加勒比全球頻道,http://hotelplay.net/live/pmb8krf68n4z/4d8cf4af8de3574c/476380.ts
日本动漫,http://hotelplay.net/live/pmb8krf68n4z/4d8cf4af8de3574c/627300.ts

🈲VIP頻道²_888,#genre#
驚豔台,http://18.svi-studio.com:8880/live/908957700097/132663288386/1.m3u8
潘朵拉完美,http://18.svi-studio.com:8880/live/624372101145/418430465490/3.m3u8
香蕉台,http://18.svi-studio.com:8880/live/624372101145/418430465490/4.m3u8
香蕉台,https://stream1.freetv.fun/0a398c78e1a877e31a6e19eedd8480ea5c458b52633ac77910c32fd45b6d0548.ctv
歐美香蕉台,https://stream1.freetv.fun/81680c1022b7ec01b57a0707df4dafb2f0f1bc38030491fccd479cc7c5cf986b.m3u8
松視1台,http://18.svi-studio.com:8880/live/584830114073/800309151021/5.m3u8
松視2台,http://18.svi-studio.com:8880/live/917952932058/953281067271/6.m3u8
松視3台,http://18.svi-studio.com:8880/live/271871095922/006886711863/20205.m3u8

驚豔台,http://125.227.210.55:8156/VideoInput/play.ts
香蕉台,http://125.227.210.55:8159/VideoInput/play.ts
奧視1台,http://125.227.210.55:8201/VideoInput/play.ts
奧視2台,http://125.227.210.55:8203/VideoInput/play.ts
奧視3台,http://125.227.210.55:8205/VideoInput/play.ts

💋CR頻道_888,#genre#
🎄松视1,p3p://173.208.176.178:31809/5fe445280008a40682a0367c343436bb
🎄松视2,p3p://173.208.176.178:31809/60232b5f00007bc37850649979e379df
潘多拉完美,p3p://173.208.176.178:31809/5fe4450c000c918b829fca233c845311
🍌香蕉,p3p://173.208.176.178:31809/60626a760005067e6f5bbecb5816771e

惊艳,p3p://173.208.176.178:31809/60626a1b00010e3e6f5a5a4f018e5ebe
LOOK,p3p://173.208.176.178:31809/606271190002a1266f75aaee0463186a
HAPPY,p3p://173.208.176.178:31809/616b79be000a35b17ab2f7b84c325eeb
🌈彩虹e,p3p://173.208.176.178:31809/6062716c0008efc86f76f0c44d55329f
🌈彩虹K,p3p://173.208.176.178:31809/63fd56ec000b5f0d26d4fe1b07963493
🌈彩虹电影,p3p://173.208.176.178:31809/6253066c00049259f74b05224cf375e6
🌈彩虹频道,p3p://173.208.176.178:31809/63fd589300099ff426db7203798a21f9
极限电影,p3p://173.208.176.178:31809/6109e9bb0005fd87fd9ce5ea2c1f18d3
西方OFFICE场景,p3p://173.208.176.178:31809/6403cb9f0003a839400cad904b301253
西方黑白大战,p3p://173.208.176.178:31809/6403cc0d0000f97a400e5a9115f012f3
中字有码1,p3p://173.208.176.178:31809/5fe790790005783d8f7e6a1d2f8774e6
中字有码2,p3p://173.208.176.178:31809/5fea645500007b7e9a898b3d6ea244cf
日本j-girl,p3p://173.208.176.178:31809/5fe6d5ab000d6dc38ca4b77276be2f75
上原亚衣,p3p://173.208.176.178:31809/5fed670a00074c56a64c200b26e62c10
日本PPV-1,p3p://173.208.176.178:31809/5fed5578000e28fba6077f774fba6950
奥体金丝雀,p3p://173.208.176.178:31809/5febb68d000c74979fb2b90c461f0bfb
日本VR精品,p3p://173.208.176.178:31809/5fea649900057d369a8a9626665058f0
日本加勒比无码,p3p://173.208.176.178:31809/5fe6d4c0000ea3178ca121c83d4b0a39
日本东京热无码,p3p://173.208.176.178:31809/5fe6d4f10006c6ec8ca1df2d4bd07a2d
韩国演艺圈潜规则,p3p://173.208.176.178:31809/5fe6d643000a32ae8ca7085f68304b38
日本一本道无码,p3p://173.208.176.178:31809/5fe6d4d8000a01508ca17e596611121f
日本CATWALK POISON,p3p://173.208.176.178:31809/5fe7fe14000bbbb1912a91354e4b5706
日本J-Girl,p3p://173.208.176.178:31809/5fe6d5ab000d6dc38ca4b77276be2f75
Playboy KR,p3p://173.208.176.178:31809/646fa54000041fa7e554fbe50f3b3077
Midnight KR,p3p://173.208.176.178:31809/646fa5d10004a256e557326f0b8b5682
Miami TV,p3p://173.208.176.178:31809/64eefc5700067df3d6beb4ce0b4d4a5d
MiamiTVJennyForYou,p3p://173.208.176.178:31809/64ef02c100057c77d6d7c2942a8e0343
大神猫先生,p3p://173.208.176.178:31809/5fed7efe000093e8a6a9af6f691c7583
麻豆天美传媒,p3p://173.208.176.178:31809/61bff85e00029535c4bd1c4f47fb5400
七天极品探花,p3p://173.208.176.178:31809/62ca5692000275f2c95644b27e04396b
苍井空,p3p://173.208.176.178:31809/5fea6483000512cf9a8a401a24db1f4e
波多野结衣,p3p://173.208.176.178:31809/5fe6d96b000d95298cb35d8161902e91
Heyzo无码,p3p://173.208.176.178:31809/5fe8014b0007228691371ed44a517e44
人妻斩,p3p://173.208.176.178:31809/5fe7fd63000e253a9127de6a777d49b4
猫步毒药,p3p://173.208.176.178:31809/5fe7fe14000bbbb1912a91354e4b5706
人妻熟女,p3p://173.208.176.178:31809/5fe8019000071e4f91382c5b7fef4506
素人动画,p3p://173.208.176.178:31809/5fe7ff6e0001271f912fd60179236471
XXXAV,p3p://173.208.176.178:31809/5fe80214000d2ec8913a3189085b6434
黑珍珠,p3p://fccsen.dyndns.tv:29706/5e17adad000be87d05e8384a1be757b6
色情世界,p3p://fccsen.dyndns.tv:29706/641668210006c654685657293a3f03ba
人妻出轨,p3p://fccsen.dyndns.tv:29706/5e17adf800008ec005e95a5b2fd52e46
日本天热素人,p3p://173.208.176.178:31809/5fe6d51e0009f6db8ca28fc66a750553
FC2PPV-1,p3p://173.208.176.178:31809/5fed5578000e28fba6077f774fba6950
Play boy,p3p://fccsen.dyndns.tv:29706/6277188600044b271208d22208f54f69
古川伊织,p3p://173.208.176.178:31809/5ff7430900000f8fcccf091c30805ccb
日本无码破解,p3p://173.208.176.178:31809/5fef580000022fb6ade15fa160a61ae1
迷奸无码,p3p://173.208.176.178:31809/5ff201c40003b7e3b8481485121959a6
经典三级片1,p3p://173.208.176.178:31809/62dac52e00087a70098570f12b7962e5
日本情色动漫1,p3p://173.208.176.178:31809/5ff742d8000bbabbccce4cb0100a31ff
麻豆大番,p3p://173.208.176.178:31809/5fee099a000e4a8da8c7244c6ff632e3
麻豆导演,p3p://173.208.176.178:31809/5fee723900074e31aa5fcfa0561f1b95
麻豆外番,p3p://173.208.176.178:31809/5fee86ee0006ce80aab0b2811d842258
麻豆台湾,p3p://173.208.176.178:31809/5fef5ed40002a464adfc0be76180670f
91沈先生,p3p://173.208.176.178:31809/5fee5d4500060214aa0df631581d3164
鸭总探花,p3p://173.208.176.178:31809/5fee5d6300022e98aa0e6a660e9f6d9f
金三角猎艳,p3p://173.208.176.178:31809/5fedf9d60007fb5ca8898d0b546620cc
黑人干翻天,p3p://173.208.176.178:31809/5fedfa1c00068347a88a9e1b1b517e42
千人斩,p3p://173.208.176.178:31809/5fee93e80000c61aaae361853fd36c1f
小宝寻花,p3p://173.208.176.178:31809/5fee940f000cad40aae3fce963f95891
午夜寻花,p3p://173.208.176.178:31809/5ff22f59000ea2d6b8fa255a1d4c635c
男爵探花,p3p://173.208.176.178:31809/62bf9f8c000c9a4c9f7bcb53499c786f
大陆迷奸,p3p://173.208.176.178:31809/5ff395d60009ac7fbe727c5c77ee33a8
SM西贡女,p3p://173.208.176.178:31809/5ff92d000005f07cd448f7774faa47bd
PsychopornTW,p3p://173.208.176.178:31809/5ff399460003af78be7fe8571735593d
俄罗斯毛子,p3p://173.208.176.178:31809/5fef89a7000537fcaea354cc0cff353a
美国家庭,p3p://173.208.176.178:31809/5ff7341b000bdc38cc94ba7e6b763297
欧美艺术,p3p://173.208.176.178:31809/607e1f9f0004af8edb961118303e4935
果冻传媒,p3p://173.208.176.178:31809/5ff5420900039286c4fb220f4b133915
利哥探花 1,p3p://173.208.176.178:31809/61b4e9970009588e998c4b9532e01f5f
利哥探花 2,p3p://173.208.176.178:31809/64ebf4ae0000f1c2cae8c73738a337d4
精东影业,p3p://173.208.176.178:31809/6135966100022f18a83512374f864fd8
香港三级2,p3p://173.208.176.178:31809/607e0dca0005cd6ddb506963435f6f5a
中文有码3,p3p://173.208.176.178:31809/5ff70064000178a1cbcab4ef4f5f0bd9
天台素人约啪,p3p://173.208.176.178:31809/5fea646c000b95d79a89e7ed2c483b7a
日本强奸迷奸无码,p3p://173.208.176.178:31809/5ff201c40003b7e3b8481485121959a6
Brazzers,p3p://fccsen.dyndns.tv:29706/60bc2535000292424fc304cf3c251ba8
sky angel blue,p3p://173.208.176.178:31809/6135967b0008b0e7a83579725d7b7ab3
IBIZA 巨乳控,p3p://173.208.176.178:31809/644ecb5f000ca4ee650265db655d0248
Dorcel XXX,p3p://fccsen.dyndns.tv:29706/5e5f0e09000182301cb87c94194b43d6
Vivid red,p3p://fccsen.dyndns.tv:29706/5b2c54aa0003c48fe0d1190f0090339a
